{
  "parts": [
    {
      "implements": "part:@sanity/base/schema-type",
      "path": "./i18n/language.js"
    },
    {
      "implements": "part:@sanity/base/schema-type",
      "path": "./i18n/supportedLanguages.js"
    },
    {
      "implements": "part:@sanity/base/schema-type",
      "path": "./i18n/localeString.js"
    }
  ]
}
